<?xml version="1.0" encoding="UTF-8" standalone="no"?>
<svg
   xmlns:dc="http://purl.org/dc/elements/1.1/"
   xmlns:cc="http://creativecommons.org/ns#"
   xmlns:rdf="http://www.w3.org/1999/02/22-rdf-syntax-ns#"
   xmlns:svg="http://www.w3.org/2000/svg"
   xmlns="http://www.w3.org/2000/svg"
   xmlns:xlink="http://www.w3.org/1999/xlink"
   xmlns:sodipodi="http://sodipodi.sourceforge.net/DTD/sodipodi-0.dtd"
   xmlns:inkscape="http://www.inkscape.org/namespaces/inkscape"
   version="1.1"
   width="100%"
   height="100%"
   viewBox="0 0 48 48"
   id="svg2985"
   sodipodi:docname="1a1b1c_eq_1a1b12.svg"
   inkscape:version="1.0.2 (1.0.2+r75+1)">
  <sodipodi:namedview
     pagecolor="#ffffff"
     bordercolor="#666666"
     borderopacity="1"
     objecttolerance="10"
     gridtolerance="10"
     guidetolerance="10"
     inkscape:pageopacity="0"
     inkscape:pageshadow="2"
     inkscape:window-width="1110"
     inkscape:window-height="676"
     id="namedview19"
     showgrid="false"
     inkscape:zoom="6.0104167"
     inkscape:cx="60.250782"
     inkscape:cy="28.14827"
     inkscape:window-x="76"
     inkscape:window-y="96"
     inkscape:window-maximized="0"
     inkscape:current-layer="svg2985"
     inkscape:document-rotation="0" />
  <metadata
     id="metadata16">
    <rdf:RDF>
      <cc:Work
         rdf:about="">
        <dc:format>image/svg+xml
</dc:format>
        <dc:type
           rdf:resource="http://purl.org/dc/dcmitype/StillImage" />
        <dc:title></dc:title>
      </cc:Work>
    </rdf:RDF>
  </metadata>
  <defs
     id="defs2987" />
  <rect
     width="10"
     height="10"
     rx="2"
     ry="2"
     x="5.2304606"
     y="9.6368666"
     id="rect271"
     style="color:#000000;display:inline;overflow:visible;visibility:visible;fill:#00ca05;fill-opacity:1;fill-rule:evenodd;stroke:#105300;stroke-width:0.5;stroke-linecap:butt;stroke-linejoin:miter;stroke-miterlimit:4;stroke-dasharray:none;stroke-dashoffset:0;stroke-opacity:1;marker:none;enable-background:accumulate" />
  <rect
     width="7.5799103"
     height="6.1782532"
     rx="1.3360139"
     ry="1.3360139"
     x="31.76417"
     y="13.345337"
     id="rect279"
     style="color:#000000;font-variation-settings:normal;display:inline;overflow:visible;visibility:visible;opacity:1;vector-effect:none;fill:#baa494;fill-opacity:1;fill-rule:evenodd;stroke:#453322;stroke-width:0.5;stroke-linecap:butt;stroke-linejoin:bevel;stroke-miterlimit:4;stroke-dasharray:none;stroke-dashoffset:0;stroke-opacity:1;marker:none;enable-background:accumulate;stop-color:#000000;stop-opacity:1" />
  <g
     aria-label="10"
     id="g285"
     style="font-style:normal;font-variant:normal;font-weight:normal;font-stretch:normal;font-size:10.6667px;line-height:1.25;font-family:Dyuthi;-inkscape-font-specification:Dyuthi;letter-spacing:0px;fill:#453322;fill-opacity:1"
     transform="matrix(0.44753846,0,0,0.52453741,31.854148,-34.537144)">
    <path
       d="m 4.9649494,93.715434 q 0,0 0.6927105,0 0.2343757,0 0.3958346,0.15625 0.1614588,0.161459 0.1562505,0.390626 v 5.296892 q 0,0.385418 -0.2291674,0.604168 -0.104167,0.10417 -0.5416684,0.10417 h -0.020833 q -0.4479181,0 -0.5520851,-0.10417 -0.2291674,-0.234375 -0.2291674,-0.604168 v -4.26043 Q 4.386823,95.434189 4.1576556,95.533148 3.9284882,95.632108 3.7097375,95.538348 3.4909864,95.439397 3.4024444,95.24148 3.2514023,95.090438 3.3607776,94.83002 3.4753613,94.569603 3.7149454,94.465436 4.2097387,94.26231 4.4701562,93.986268 4.7305736,93.715434 4.9649494,93.715434 Z"
       id="path281"
       style="fill:#453322;fill-opacity:1" />
    <path
       d="m 9.813923,99.423785 q 0.541668,0 0.984378,-0.692711 0.406251,-0.625002 0.41146,-1.776047 0,-1.177087 -0.41146,-1.79688 -0.406251,-0.625002 -0.984378,-0.625002 -0.5885435,0 -0.9947948,0.619793 -0.4062513,0.625002 -0.4062513,1.802089 0,1.156254 0.4218764,1.812506 0.4218763,0.656252 0.9791697,0.656252 z m 0,-5.750018 q 1.276046,0.0625 2.088548,1.01042 0.734378,0.854169 0.729169,2.291674 0,1.437504 -0.671877,2.291673 -0.671877,0.848966 -1.9687561,0.953126 -0.072917,0.005 -0.104167,0.0104 -0.03125,0.0104 -0.046875,0.0104 -0.020833,0 -0.03125,0 -0.010417,0 -0.026042,-0.005 -0.03125,0.005 -0.1510421,-0.0156 Q 8.2410014,99.986287 7.6159994,99.205034 6.9909974,98.42899 6.9805807,96.996694 6.970164,95.564398 7.7462082,94.652937 8.5274606,93.746684 9.813923,93.673767 Z"
       id="path283"
       style="fill:#453322;fill-opacity:1" />
  </g>
  <rect
     width="6.085784"
     height="6.463336"
     rx="1.0726633"
     ry="1.0726633"
     x="40.58205"
     y="13.05398"
     id="rect287"
     style="color:#000000;font-variation-settings:normal;display:inline;overflow:visible;visibility:visible;opacity:1;vector-effect:none;fill:#6b624c;fill-opacity:1;fill-rule:evenodd;stroke:#2c2116;stroke-width:0.5;stroke-linecap:butt;stroke-linejoin:bevel;stroke-miterlimit:4;stroke-dasharray:none;stroke-dashoffset:0;stroke-opacity:1;marker:none;enable-background:accumulate;stop-color:#000000;stop-opacity:1" />
  <g
     aria-label="2"
     id="g291"
     style="font-style:normal;font-variant:normal;font-weight:normal;font-stretch:normal;font-size:10.6667px;line-height:1.25;font-family:Dyuthi;-inkscape-font-specification:Dyuthi;letter-spacing:0px;fill:#2c2116;fill-opacity:1"
     transform="matrix(0.52453741,0,0,0.52453741,33.179334,-28.627698)">
    <path
       d="m 19.563685,87.796037 h 1.567713 q 0.244793,0 0.432293,0.182292 0.182293,0.192709 0.177084,0.427085 v 0.01563 q 0,0.250001 -0.171875,0.437501 -0.177084,0.187501 -0.437502,0.187501 h -3.12501 q -0.328126,0 -0.447918,-0.296876 -0.125,-0.296876 0.06771,-0.53646 0.328126,-0.406251 1.395838,-1.817714 1.067711,-1.416671 1.07292,-1.432296 0.239584,-0.343751 0.213542,-0.604169 -0.01563,-0.109375 -0.08333,-0.276042 -0.0625,-0.166668 -0.140625,-0.229168 -0.07813,-0.0625 -0.156251,-0.104167 -0.406251,-0.223959 -0.739585,-0.1875 -0.333335,0.03646 -0.53646,0.213542 -0.208334,0.177084 -0.401043,0.171876 -0.203126,-0.01042 -0.338543,-0.125001 h -0.01042 q -0.203125,-0.151042 -0.182292,-0.406251 0.02083,-0.255209 0.229168,-0.41146 0.656252,-0.479168 1.619796,-0.47396 0.963545,0 1.567714,0.510419 0.604168,0.510418 0.604168,1.338546 0,0.828127 -0.786461,1.70313 -0.385417,0.421876 -1.390629,1.713547 z"
       id="path289"
       style="fill:#2c2116;fill-opacity:1" />
  </g>
  <use
     transform="matrix(0.80951931,0,0,0.80951931,91.069484,35.929239)"
     id="use4745"
     x="0"
     y="0"
     width="640"
     height="480"
     xlink:href="#helper" />
  <use
     transform="matrix(0.83632243,0,0,0.83632243,123.97436,37.472072)"
     id="use4743"
     x="0"
     y="0"
     width="640"
     height="480"
     xlink:href="#helper" />
  <rect
     width="10"
     height="10"
     rx="2"
     ry="2"
     x="1.2010365"
     y="19.965193"
     id="rect259"
     style="color:#000000;display:inline;overflow:visible;visibility:visible;fill:#2242cd;fill-opacity:1;fill-rule:evenodd;stroke:#00084c;stroke-width:0.5;stroke-linecap:butt;stroke-linejoin:miter;stroke-miterlimit:4;stroke-dasharray:none;stroke-dashoffset:0;stroke-opacity:1;marker:none;enable-background:accumulate" />
  <path
     d="m 5.3210417,24.795195 c 0.01,0.65 0.06,1.43 0.62,1.86 0.42,0.3 1.08,0.18 1.34,-0.28 0.2,-0.15 0.13,-0.69 0.44,-0.57 0.33,0.06 0.67,0.12 1.01,0.19 -0.23,0.8 -0.8,1.59 -1.66,1.77 -0.91,0.19 -2,-0.05 -2.54,-0.87 -0.55,-0.86 -0.57,-1.94 -0.45,-2.93 0.09,-0.8 0.51,-1.64 1.3,-1.94 0.87,-0.33 2.02,-0.28 2.68,0.45 0.2,0.26 0.59,0.78 0.48,1.04 -0.36,0.08 -0.73,0.17 -1.1,0.26 -0.11,-0.47 -0.46,-1.01 -1.02,-0.96 -0.59,0 -0.95,0.58 -1.03,1.11 -0.05,0.28 -0.07,0.57 -0.07,0.85 z"
     id="path261"
     style="color:#000000;font-style:normal;font-variant:normal;font-weight:bold;font-stretch:normal;font-size:8.86px;line-height:125%;font-family:'Liberation Mono';-inkscape-font-specification:'Sans Bold';letter-spacing:0px;word-spacing:0px;visibility:visible;fill:#afd2f6;fill-opacity:1;fill-rule:nonzero;stroke:#000667;stroke-width:0.2;stroke-linecap:butt;stroke-linejoin:miter;stroke-miterlimit:4;stroke-dashoffset:0;stroke-opacity:1;marker:none" />
  <rect
     width="10"
     height="10"
     rx="2"
     ry="2"
     x="12.413423"
     y="19.819662"
     id="rect263"
     style="color:#000000;display:inline;overflow:visible;visibility:visible;fill:#af0000;fill-opacity:1;fill-rule:evenodd;stroke:#650000;stroke-width:0.5;stroke-linecap:butt;stroke-linejoin:miter;stroke-miterlimit:4;stroke-dasharray:none;stroke-dashoffset:0;stroke-opacity:1;marker:none;enable-background:accumulate" />
  <path
     d="m 20.233423,27.709661 c -0.42,0 -0.85,0 -1.28,0 -0.13,-0.48 -0.26,-0.96 -0.4,-1.44 -0.66,0 -1.33,0 -1.99,0 -0.13,0.48 -0.26,0.96 -0.4,1.44 -0.43,0 -0.86,0 -1.29,0 0.64,-1.97 1.29,-3.94 1.94,-5.91 0.5,0 1,0 1.5,0 0.64,1.97 1.29,3.94 1.93,5.91 z m -2.69,-5.11 c -0.19,0.9 -0.47,1.79 -0.72,2.69 0.48,0 0.96,0 1.45,0 -0.24,-0.89 -0.53,-1.78 -0.72,-2.69 z"
     id="path265"
     style="font-style:normal;font-variant:normal;font-weight:bold;font-stretch:normal;font-size:11.41px;line-height:125%;font-family:'Liberation Mono';-inkscape-font-specification:'Liberation Mono Bold';letter-spacing:0px;word-spacing:0px;fill:#f4c0a1;fill-opacity:1;stroke:#650000;stroke-width:0.2;stroke-miterlimit:4;stroke-dasharray:none;stroke-opacity:1" />
  <rect
     width="10"
     height="10"
     rx="2"
     ry="2"
     x="37.13974"
     y="19.819662"
     id="rect267"
     style="color:#000000;display:inline;overflow:visible;visibility:visible;fill:#af0000;fill-opacity:1;fill-rule:evenodd;stroke:#650000;stroke-width:0.5;stroke-linecap:butt;stroke-linejoin:miter;stroke-miterlimit:4;stroke-dasharray:none;stroke-dashoffset:0;stroke-opacity:1;marker:none;enable-background:accumulate" />
  <path
     d="m 44.959739,27.709661 c -0.42,0 -0.85,0 -1.28,0 -0.13,-0.48 -0.26,-0.96 -0.4,-1.44 -0.66,0 -1.33,0 -1.99,0 -0.13,0.48 -0.26,0.96 -0.4,1.44 -0.43,0 -0.86,0 -1.29,0 0.64,-1.97 1.29,-3.94 1.94,-5.91 0.5,0 1,0 1.5,0 0.64,1.97 1.29,3.94 1.93,5.91 z m -2.69,-5.11 c -0.19,0.9 -0.47,1.79 -0.72,2.69 0.48,0 0.96,0 1.45,0 -0.24,-0.89 -0.53,-1.78 -0.72,-2.69 z"
     id="path269"
     style="font-style:normal;font-variant:normal;font-weight:bold;font-stretch:normal;font-size:11.41px;line-height:125%;font-family:'Liberation Mono';-inkscape-font-specification:'Liberation Mono Bold';letter-spacing:0px;word-spacing:0px;fill:#f4c0a1;fill-opacity:1;stroke:#650000;stroke-width:0.2;stroke-miterlimit:4;stroke-dasharray:none;stroke-opacity:1" />
  <path
     d="m 12.930461,15.826866 c -5e-6,0.3 -0.05,0.56 -0.16,0.77 -0.11,0.21 -0.26,0.39 -0.45,0.53 -0.18,0.13 -0.4,0.23 -0.65,0.3 -0.24,0.06 -0.5,0.09 -0.78,0.09 H 8.3204605 v -5.96 h 2.3200005 c 0.3,6e-6 0.58,0.03 0.82,0.09 0.24,0.05 0.44,0.15 0.61,0.27 0.16,0.12 0.29,0.27 0.38,0.46 0.09,0.18 0.13,0.4 0.13,0.66 -5e-6,0.33 -0.09,0.62 -0.29,0.85 -0.19,0.22 -0.49,0.38 -0.89,0.47 0.5,0.05 0.88,0.2 1.14,0.45 0.26,0.24 0.39,0.57 0.39,0.98 m -1.67,-2.58 c -4e-6,-0.25 -0.06,-0.43 -0.19,-0.54 -0.13,-0.1 -0.31,-0.16 -0.53,-0.16 H 9.6204605 v 1.41 h 0.9300005 c 0.23,4e-6 0.41,-0.05 0.54,-0.17 0.12,-0.11 0.18,-0.29 0.18,-0.52 m 0.35,2.47 c -4e-6,-0.15 -0.02,-0.28 -0.07,-0.38 -0.05,-0.1 -0.11,-0.18 -0.2,-0.24 -0.08,-0.06 -0.17,-0.11 -0.29,-0.13 -0.1,-0.02 -0.22,-0.03 -0.34,-0.03 H 9.6204605 v 1.65 h 1.1300005 c 0.11,10e-7 0.22,-0.01 0.33,-0.03 0.1,-0.02 0.2,-0.07 0.28,-0.13 0.08,-0.06 0.14,-0.15 0.19,-0.26 0.04,-0.1 0.07,-0.24 0.07,-0.41"
     id="path273"
     style="color:#000000;font-style:normal;font-variant:normal;font-weight:bold;font-stretch:normal;font-size:9.05px;line-height:125%;font-family:'Liberation Mono';-inkscape-font-specification:'Sans Bold';letter-spacing:0px;word-spacing:0px;visibility:visible;fill:#c4f6af;fill-opacity:1;fill-rule:nonzero;stroke:#006505;stroke-width:0.2;stroke-linecap:butt;stroke-linejoin:miter;stroke-miterlimit:4;stroke-dashoffset:0;stroke-opacity:1;marker:none" />
  <rect
     width="10"
     height="10"
     rx="2"
     ry="2"
     x="26.163469"
     y="19.774466"
     id="rect275"
     style="color:#000000;display:inline;overflow:visible;visibility:visible;fill:#00ca05;fill-opacity:1;fill-rule:evenodd;stroke:#105300;stroke-width:0.5;stroke-linecap:butt;stroke-linejoin:miter;stroke-miterlimit:4;stroke-dasharray:none;stroke-dashoffset:0;stroke-opacity:1;marker:none;enable-background:accumulate" />
  <path
     d="m 33.863469,25.964466 c -5e-6,0.3 -0.05,0.56 -0.16,0.77 -0.11,0.21 -0.26,0.39 -0.45,0.53 -0.18,0.13 -0.4,0.23 -0.65,0.3 -0.24,0.06 -0.5,0.09 -0.78,0.09 h -2.57 v -5.96 h 2.32 c 0.3,6e-6 0.58,0.03 0.82,0.09 0.24,0.05 0.44,0.15 0.61,0.27 0.16,0.12 0.29,0.27 0.38,0.46 0.09,0.18 0.13,0.4 0.13,0.66 -5e-6,0.33 -0.09,0.62 -0.29,0.85 -0.19,0.22 -0.49,0.38 -0.89,0.47 0.5,0.05 0.88,0.2 1.14,0.45 0.26,0.24 0.39,0.57 0.39,0.98 m -1.67,-2.58 c -4e-6,-0.25 -0.06,-0.43 -0.19,-0.54 -0.13,-0.1 -0.31,-0.16 -0.53,-0.16 h -0.92 v 1.41 h 0.93 c 0.23,4e-6 0.41,-0.05 0.54,-0.17 0.12,-0.11 0.18,-0.29 0.18,-0.52 m 0.35,2.47 c -4e-6,-0.15 -0.02,-0.28 -0.07,-0.38 -0.05,-0.1 -0.11,-0.18 -0.2,-0.24 -0.08,-0.06 -0.17,-0.11 -0.29,-0.13 -0.1,-0.02 -0.22,-0.03 -0.34,-0.03 h -1.1 v 1.65 h 1.13 c 0.11,1e-6 0.22,-0.01 0.33,-0.03 0.1,-0.02 0.2,-0.07 0.28,-0.13 0.08,-0.06 0.14,-0.15 0.19,-0.26 0.04,-0.1 0.07,-0.24 0.07,-0.41"
     id="path277"
     style="color:#000000;font-style:normal;font-variant:normal;font-weight:bold;font-stretch:normal;font-size:9.05px;line-height:125%;font-family:'Liberation Mono';-inkscape-font-specification:'Sans Bold';letter-spacing:0px;word-spacing:0px;visibility:visible;fill:#c4f6af;fill-opacity:1;fill-rule:nonzero;stroke:#006505;stroke-width:0.2;stroke-linecap:butt;stroke-linejoin:miter;stroke-miterlimit:4;stroke-dashoffset:0;stroke-opacity:1;marker:none" />
  <g
     id="layer1">
    <path
       d="m 7,35.99 34,0 0,1.59 -34,0 z"
       id="rect3778"
       style="color:#000000;fill:#241f1c;fill-opacity:1;fill-rule:evenodd;stroke:none;stroke-width:0.99;marker:none;visibility:visible;display:inline;overflow:visible;enable-background:accumulate" />
    <path
       d="m 9.71,30.85 2.57,0 0,12 -2.57,0 z"
       id="rect3776"
       style="color:#000000;fill:#333333;fill-opacity:1;fill-rule:evenodd;stroke:#191615;stroke-width:0.30;stroke-miterlimit:4;stroke-opacity:1;marker:none;visibility:visible;display:inline;overflow:visible;enable-background:accumulate" />
    <path
       d="m 1,30 20,0 0,2 -20,0 z"
       id="rect2998"
       style="color:#000000;fill:#d3bc5f;fill-opacity:1;fill-rule:evenodd;stroke:#191615;stroke-width:0.40;stroke-miterlimit:4;stroke-opacity:1;marker:none;visibility:visible;display:inline;overflow:visible;enable-background:accumulate" />
    <path
       d="m 36,30.85 2.57,0 0,12 -2.57,0 z"
       id="rect3791"
       style="color:#000000;fill:#333333;fill-opacity:1;fill-rule:evenodd;stroke:#191615;stroke-width:0.30;stroke-miterlimit:4;stroke-opacity:1;marker:none;visibility:visible;display:inline;overflow:visible;enable-background:accumulate" />
    <path
       d="m 27,30 20,0 0,2 -20,0 z"
       id="rect3772"
       style="color:#000000;fill:#d3bc5f;fill-opacity:1;fill-rule:evenodd;stroke:#191615;stroke-width:0.40;stroke-linecap:butt;stroke-linejoin:miter;stroke-miterlimit:4;stroke-opacity:1;stroke-dashoffset:0;marker:none;visibility:visible;display:inline;overflow:visible;enable-background:accumulate" />
    <path
       d="m 24,33 c -3.86,0 -7,3.13 -7,7 0,0.79 0.13,1.56 0.37,2.28 l 3.34,0 C 20.27,41.63 20,40.84 20,40 c 0,-2.2 1.79,-4 4,-4 2.2,0 4,1.79 4,4 0,0.84 -0.27,1.63 -0.71,2.28 l 3.34,0 C 30.86,41.56 31,40.79 31,40 31,36.13 27.86,33 24,33 z m 0,3.84 c -1.73,0 -3.15,1.42 -3.15,3.15 0,0.9 0.41,1.7 1.03,2.28 l 4.25,0 C 26.74,41.7 27.15,40.9 27.15,40 27.15,38.26 25.73,36.84 24,36.84 z m 0,1.37 c 0.99,0 1.78,0.78 1.78,1.78 0,0.99 -0.78,1.78 -1.78,1.78 -0.99,0 -1.78,-0.78 -1.78,-1.78 C 22.22,39 23,38.21 24,38.21 z"
       id="path3774"
       style="color:#000000;fill:#917c6f;fill-opacity:1;fill-rule:evenodd;stroke:none;stroke-width:0.99;marker:none;visibility:visible;display:inline;overflow:visible;enable-background:accumulate" />
    <path
       d="m 24,34.51 c 0.55,0 1,0.44 1,1 l 0,5.33 c 0,0.55 -0.44,1 -1,1 -0.55,0 -1,-0.44 -1,-1 l 0,-5.33 c 0,-0.55 0.44,-1 1,-1 z"
       id="rect3793"
       style="color:#000000;fill:#ff0000;fill-opacity:1;fill-rule:evenodd;stroke:#4b1400;stroke-width:0.5;stroke-miterlimit:4;stroke-opacity:1;marker:none;visibility:visible;display:inline;overflow:visible;enable-background:accumulate" />
    <path
       d="m 6,40 c -1.11,0 -2,0.89 -2,2 l 0,1.56 0,0.44 0,2 2,0 36,0 2,0 0,-2 0,-0.43 0,-1.57 c 0,-1.1 -0.89,-2 -2,-2 L 6,40 z"
       id="rect2993"
       style="color:#000000;fill:#30251c;fill-opacity:1;fill-rule:evenodd;stroke:#191615;stroke-width:0.40;stroke-miterlimit:4;stroke-opacity:1;stroke-dasharray:none;marker:none;visibility:visible;display:inline;overflow:visible;enable-background:accumulate" />
    <path
       d="m 31,40 c 0,-3.86 -3.13,-7 -7,-7 -3.86,0 -7,3.13 -7,7"
       id="path3817"
       style="color:#000000;fill:none;stroke:#191615;stroke-width:0.40;stroke-miterlimit:4;stroke-opacity:1;stroke-dasharray:none;marker:none;visibility:visible;display:inline;overflow:visible;enable-background:accumulate" />
  </g>
</svg>
