<?xml version="1.0" encoding="UTF-8" standalone="no"?>
<svg
   xmlns:dc="http://purl.org/dc/elements/1.1/"
   xmlns:cc="http://creativecommons.org/ns#"
   xmlns:rdf="http://www.w3.org/1999/02/22-rdf-syntax-ns#"
   xmlns:svg="http://www.w3.org/2000/svg"
   xmlns="http://www.w3.org/2000/svg"
   xmlns:xlink="http://www.w3.org/1999/xlink"
   xmlns:sodipodi="http://sodipodi.sourceforge.net/DTD/sodipodi-0.dtd"
   xmlns:inkscape="http://www.inkscape.org/namespaces/inkscape"
   version="1.1"
   width="100%"
   height="100%"
   viewBox="0 0 48 48"
   id="svg2985"
   sodipodi:docname="2A_eq_14.svg"
   inkscape:version="1.0.2 (1.0.2+r75+1)">
  <sodipodi:namedview
     pagecolor="#ffffff"
     bordercolor="#666666"
     borderopacity="1"
     objecttolerance="10"
     gridtolerance="10"
     guidetolerance="10"
     inkscape:pageopacity="0"
     inkscape:pageshadow="2"
     inkscape:window-width="1110"
     inkscape:window-height="676"
     id="namedview19"
     showgrid="false"
     inkscape:zoom="4.2500064"
     inkscape:cx="33.37422"
     inkscape:cy="45.32517"
     inkscape:window-x="88"
     inkscape:window-y="34"
     inkscape:window-maximized="0"
     inkscape:current-layer="svg2985" />
  <metadata
     id="metadata16">
    <rdf:RDF>
      <cc:Work
         rdf:about="">
        <dc:format>image/svg+xml
</dc:format>
        <dc:type
           rdf:resource="http://purl.org/dc/dcmitype/StillImage" />
        <dc:title></dc:title>
      </cc:Work>
    </rdf:RDF>
  </metadata>
  <defs
     id="defs2987" />
  <rect
     width="6.085784"
     height="4.9604168"
     rx="1.0726633"
     ry="1.0726633"
     x="40.291855"
     y="24.829308"
     id="rect1156"
     style="color:#000000;font-variation-settings:normal;display:inline;overflow:visible;visibility:visible;opacity:1;vector-effect:none;fill:#6b624c;fill-opacity:1;fill-rule:evenodd;stroke:#2c2116;stroke-width:0.5;stroke-linecap:butt;stroke-linejoin:bevel;stroke-miterlimit:4;stroke-dasharray:none;stroke-dashoffset:0;stroke-opacity:1;marker:none;enable-background:accumulate;stop-color:#000000;stop-opacity:1" />
  <g
     aria-label="1"
     id="g1160"
     style="font-style:normal;font-variant:normal;font-weight:normal;font-stretch:normal;font-size:10.6667px;line-height:1.25;font-family:Dyuthi;-inkscape-font-specification:Dyuthi;letter-spacing:0px;fill:#2c2116;fill-opacity:1"
     transform="matrix(0.52453741,0,0,0.49688093,37.852305,-11.52421)">
    <path
       d="m 10.265059,74.77949 q 0,0 0.69271,0 0.234376,0 0.395835,0.156251 0.161459,0.161458 0.15625,0.390626 v 5.296891 q 0,0.385418 -0.229167,0.604169 -0.104167,0.104167 -0.541668,0.104167 h -0.02083 q -0.447918,0 -0.552085,-0.104167 -0.2291673,-0.234376 -0.2291673,-0.604169 v -4.26043 q -0.2500008,0.135417 -0.4791681,0.234376 -0.2291674,0.09896 -0.4479181,0.0052 Q 8.7910958,76.503454 8.7025538,76.305537 8.5515117,76.154494 8.660887,75.894077 8.7754707,75.633659 9.0150548,75.529492 9.509848,75.326367 9.7702655,75.050324 10.030683,74.77949 10.265059,74.77949 Z"
       id="path1158"
       style="fill:#2c2116;fill-opacity:1" />
  </g>
  <rect
     width="6.085784"
     height="4.9604168"
     rx="1.0726633"
     ry="1.0726633"
     x="33.544098"
     y="24.829308"
     id="rect1150"
     style="color:#000000;font-variation-settings:normal;display:inline;overflow:visible;visibility:visible;opacity:1;vector-effect:none;fill:#6b624c;fill-opacity:1;fill-rule:evenodd;stroke:#2c2116;stroke-width:0.5;stroke-linecap:butt;stroke-linejoin:bevel;stroke-miterlimit:4;stroke-dasharray:none;stroke-dashoffset:0;stroke-opacity:1;marker:none;enable-background:accumulate;stop-color:#000000;stop-opacity:1" />
  <g
     aria-label="1"
     id="g1154"
     style="font-style:normal;font-variant:normal;font-weight:normal;font-stretch:normal;font-size:10.6667px;line-height:1.25;font-family:Dyuthi;-inkscape-font-specification:Dyuthi;letter-spacing:0px;fill:#2c2116;fill-opacity:1"
     transform="matrix(0.52453741,0,0,0.49688093,31.104548,-11.52421)">
    <path
       d="m 10.265059,74.77949 q 0,0 0.69271,0 0.234376,0 0.395835,0.156251 0.161459,0.161458 0.15625,0.390626 v 5.296891 q 0,0.385418 -0.229167,0.604169 -0.104167,0.104167 -0.541668,0.104167 h -0.02083 q -0.447918,0 -0.552085,-0.104167 -0.2291673,-0.234376 -0.2291673,-0.604169 v -4.26043 q -0.2500008,0.135417 -0.4791681,0.234376 -0.2291674,0.09896 -0.4479181,0.0052 Q 8.7910958,76.503454 8.7025538,76.305537 8.5515117,76.154494 8.660887,75.894077 8.7754707,75.633659 9.0150548,75.529492 9.509848,75.326367 9.7702655,75.050324 10.030683,74.77949 10.265059,74.77949 Z"
       id="path1152"
       style="fill:#2c2116;fill-opacity:1" />
  </g>
  <rect
     width="7.5799103"
     height="6.1782532"
     rx="1.3360139"
     ry="1.3360139"
     x="25.018974"
     y="23.570309"
     id="rect1142"
     style="color:#000000;font-variation-settings:normal;display:inline;overflow:visible;visibility:visible;opacity:1;vector-effect:none;fill:#baa494;fill-opacity:1;fill-rule:evenodd;stroke:#453322;stroke-width:0.5;stroke-linecap:butt;stroke-linejoin:bevel;stroke-miterlimit:4;stroke-dasharray:none;stroke-dashoffset:0;stroke-opacity:1;marker:none;enable-background:accumulate;stop-color:#000000;stop-opacity:1" />
  <g
     aria-label="10"
     id="g1148"
     style="font-style:normal;font-variant:normal;font-weight:normal;font-stretch:normal;font-size:10.6667px;line-height:1.25;font-family:Dyuthi;-inkscape-font-specification:Dyuthi;letter-spacing:0px;fill:#453322;fill-opacity:1"
     transform="matrix(0.44753846,0,0,0.52453741,25.108952,-24.312174)">
    <path
       d="m 4.9649494,93.715434 q 0,0 0.6927105,0 0.2343757,0 0.3958346,0.15625 0.1614588,0.161459 0.1562505,0.390626 v 5.296892 q 0,0.385418 -0.2291674,0.604168 -0.104167,0.10417 -0.5416684,0.10417 h -0.020833 q -0.4479181,0 -0.5520851,-0.10417 -0.2291674,-0.234375 -0.2291674,-0.604168 v -4.26043 Q 4.386823,95.434189 4.1576556,95.533148 3.9284882,95.632108 3.7097375,95.538348 3.4909864,95.439397 3.4024444,95.24148 3.2514023,95.090438 3.3607776,94.83002 3.4753613,94.569603 3.7149454,94.465436 4.2097387,94.26231 4.4701562,93.986268 4.7305736,93.715434 4.9649494,93.715434 Z"
       id="path1144"
       style="fill:#453322;fill-opacity:1" />
    <path
       d="m 9.813923,99.423785 q 0.541668,0 0.984378,-0.692711 0.406251,-0.625002 0.41146,-1.776047 0,-1.177087 -0.41146,-1.79688 -0.406251,-0.625002 -0.984378,-0.625002 -0.5885435,0 -0.9947948,0.619793 -0.4062513,0.625002 -0.4062513,1.802089 0,1.156254 0.4218764,1.812506 0.4218763,0.656252 0.9791697,0.656252 z m 0,-5.750018 q 1.276046,0.0625 2.088548,1.01042 0.734378,0.854169 0.729169,2.291674 0,1.437504 -0.671877,2.291673 -0.671877,0.848966 -1.9687561,0.953126 -0.072917,0.005 -0.104167,0.0104 -0.03125,0.0104 -0.046875,0.0104 -0.020833,0 -0.03125,0 -0.010417,0 -0.026042,-0.005 -0.03125,0.005 -0.1510421,-0.0156 Q 8.2410014,99.986287 7.6159994,99.205034 6.9909974,98.42899 6.9805807,96.996694 6.970164,95.564398 7.7462082,94.652937 8.5274606,93.746684 9.813923,93.673767 Z"
       id="path1146"
       style="fill:#453322;fill-opacity:1" />
  </g>
  <g
     id="layer1">
    <path
       d="m 7,35.99 34,0 0,1.59 -34,0 z"
       id="rect3778"
       style="color:#000000;fill:#241f1c;fill-opacity:1;fill-rule:evenodd;stroke:none;stroke-width:0.99;marker:none;visibility:visible;display:inline;overflow:visible;enable-background:accumulate" />
    <path
       d="m 9.71,30.85 2.57,0 0,12 -2.57,0 z"
       id="rect3776"
       style="color:#000000;fill:#333333;fill-opacity:1;fill-rule:evenodd;stroke:#191615;stroke-width:0.30;stroke-miterlimit:4;stroke-opacity:1;marker:none;visibility:visible;display:inline;overflow:visible;enable-background:accumulate" />
    <path
       d="m 1,30 20,0 0,2 -20,0 z"
       id="rect2998"
       style="color:#000000;fill:#d3bc5f;fill-opacity:1;fill-rule:evenodd;stroke:#191615;stroke-width:0.40;stroke-miterlimit:4;stroke-opacity:1;marker:none;visibility:visible;display:inline;overflow:visible;enable-background:accumulate" />
    <path
       d="m 36,30.85 2.57,0 0,12 -2.57,0 z"
       id="rect3791"
       style="color:#000000;fill:#333333;fill-opacity:1;fill-rule:evenodd;stroke:#191615;stroke-width:0.30;stroke-miterlimit:4;stroke-opacity:1;marker:none;visibility:visible;display:inline;overflow:visible;enable-background:accumulate" />
    <path
       d="m 27,30 20,0 0,2 -20,0 z"
       id="rect3772"
       style="color:#000000;fill:#d3bc5f;fill-opacity:1;fill-rule:evenodd;stroke:#191615;stroke-width:0.40;stroke-linecap:butt;stroke-linejoin:miter;stroke-miterlimit:4;stroke-opacity:1;stroke-dashoffset:0;marker:none;visibility:visible;display:inline;overflow:visible;enable-background:accumulate" />
    <path
       d="m 24,33 c -3.86,0 -7,3.13 -7,7 0,0.79 0.13,1.56 0.37,2.28 l 3.34,0 C 20.27,41.63 20,40.84 20,40 c 0,-2.2 1.79,-4 4,-4 2.2,0 4,1.79 4,4 0,0.84 -0.27,1.63 -0.71,2.28 l 3.34,0 C 30.86,41.56 31,40.79 31,40 31,36.13 27.86,33 24,33 z m 0,3.84 c -1.73,0 -3.15,1.42 -3.15,3.15 0,0.9 0.41,1.7 1.03,2.28 l 4.25,0 C 26.74,41.7 27.15,40.9 27.15,40 27.15,38.26 25.73,36.84 24,36.84 z m 0,1.37 c 0.99,0 1.78,0.78 1.78,1.78 0,0.99 -0.78,1.78 -1.78,1.78 -0.99,0 -1.78,-0.78 -1.78,-1.78 C 22.22,39 23,38.21 24,38.21 z"
       id="path3774"
       style="color:#000000;fill:#917c6f;fill-opacity:1;fill-rule:evenodd;stroke:none;stroke-width:0.99;marker:none;visibility:visible;display:inline;overflow:visible;enable-background:accumulate" />
    <path
       d="m 24,34.51 c 0.55,0 1,0.44 1,1 l 0,5.33 c 0,0.55 -0.44,1 -1,1 -0.55,0 -1,-0.44 -1,-1 l 0,-5.33 c 0,-0.55 0.44,-1 1,-1 z"
       id="rect3793"
       style="color:#000000;fill:#ff0000;fill-opacity:1;fill-rule:evenodd;stroke:#4b1400;stroke-width:0.5;stroke-miterlimit:4;stroke-opacity:1;marker:none;visibility:visible;display:inline;overflow:visible;enable-background:accumulate" />
    <path
       d="m 6,40 c -1.11,0 -2,0.89 -2,2 l 0,1.56 0,0.44 0,2 2,0 36,0 2,0 0,-2 0,-0.43 0,-1.57 c 0,-1.1 -0.89,-2 -2,-2 L 6,40 z"
       id="rect2993"
       style="color:#000000;fill:#30251c;fill-opacity:1;fill-rule:evenodd;stroke:#191615;stroke-width:0.40;stroke-miterlimit:4;stroke-opacity:1;stroke-dasharray:none;marker:none;visibility:visible;display:inline;overflow:visible;enable-background:accumulate" />
    <path
       d="m 31,40 c 0,-3.86 -3.13,-7 -7,-7 -3.86,0 -7,3.13 -7,7"
       id="path3817"
       style="color:#000000;fill:none;stroke:#191615;stroke-width:0.40;stroke-miterlimit:4;stroke-opacity:1;stroke-dasharray:none;marker:none;visibility:visible;display:inline;overflow:visible;enable-background:accumulate" />
  </g>
  <rect
     width="10"
     height="10"
     rx="2"
     ry="2"
     x="5.73"
     y="19.61"
     id="rect2994"
     style="color:#000000;fill:#af0000;fill-opacity:1;fill-rule:evenodd;stroke:#650000;stroke-width:0.5;stroke-linecap:butt;stroke-linejoin:miter;stroke-miterlimit:4;stroke-opacity:1;stroke-dasharray:none;stroke-dashoffset:0;marker:none;visibility:visible;display:inline;overflow:visible;enable-background:accumulate" />
  <path
     d="m 13.55,27.50 c -0.42,0 -0.85,0 -1.28,0 -0.13,-0.48 -0.26,-0.96 -0.40,-1.44 -0.66,0 -1.33,0 -1.99,0 -0.13,0.48 -0.26,0.96 -0.40,1.44 -0.43,0 -0.86,0 -1.29,0 0.64,-1.97 1.29,-3.94 1.94,-5.91 0.50,0 1.00,0 1.50,0 0.64,1.97 1.29,3.94 1.93,5.91 z m -2.69,-5.11 c -0.19,0.90 -0.47,1.79 -0.72,2.69 0.48,0 0.96,0 1.45,0 -0.24,-0.89 -0.53,-1.78 -0.72,-2.69 z"
     id="path3771"
     style="font-size:11.41px;font-style:normal;font-variant:normal;font-weight:bold;font-stretch:normal;line-height:125%;letter-spacing:0px;word-spacing:0px;fill:#f4c0a1;fill-opacity:1;stroke:#650000;stroke-width:0.2;stroke-miterlimit:4;stroke-opacity:1;stroke-dasharray:none;font-family:Liberation Mono;-inkscape-font-specification:Liberation Mono Bold" />
  <use
     transform="matrix(0.80951931,0,0,0.80951931,91.069484,35.929239)"
     id="use4745"
     x="0"
     y="0"
     width="640"
     height="480"
     xlink:href="#helper" />
  <use
     transform="matrix(0.83632243,0,0,0.83632243,123.97436,37.472072)"
     id="use4743"
     x="0"
     y="0"
     width="640"
     height="480"
     xlink:href="#helper" />
  <rect
     width="10"
     height="10"
     rx="2"
     ry="2"
     x="6.6581316"
     y="9.2299738"
     id="rect1074"
     style="color:#000000;display:inline;overflow:visible;visibility:visible;fill:#af0000;fill-opacity:1;fill-rule:evenodd;stroke:#650000;stroke-width:0.5;stroke-linecap:butt;stroke-linejoin:miter;stroke-miterlimit:4;stroke-dasharray:none;stroke-dashoffset:0;stroke-opacity:1;marker:none;enable-background:accumulate" />
  <path
     d="m 14.478132,17.119973 c -0.42,0 -0.85,0 -1.28,0 -0.13,-0.48 -0.26,-0.96 -0.4,-1.44 -0.66,0 -1.33,0 -1.99,0 -0.13,0.48 -0.26,0.96 -0.4,1.44 -0.4300005,0 -0.8600005,0 -1.2900005,0 0.64,-1.97 1.2900005,-3.94 1.9400005,-5.91 0.5,0 1,0 1.5,0 0.64,1.97 1.29,3.94 1.93,5.91 z m -2.69,-5.11 c -0.19,0.9 -0.47,1.79 -0.72,2.69 0.48,0 0.96,0 1.45,0 -0.24,-0.89 -0.53,-1.78 -0.72,-2.69 z"
     id="path1076"
     style="font-style:normal;font-variant:normal;font-weight:bold;font-stretch:normal;font-size:11.41px;line-height:125%;font-family:'Liberation Mono';-inkscape-font-specification:'Liberation Mono Bold';letter-spacing:0px;word-spacing:0px;fill:#f4c0a1;fill-opacity:1;stroke:#650000;stroke-width:0.2;stroke-miterlimit:4;stroke-dasharray:none;stroke-opacity:1" />
  <rect
     width="6.085784"
     height="4.9604168"
     rx="1.0726633"
     ry="1.0726633"
     x="33.061386"
     y="19.583027"
     id="rect1105-7"
     style="color:#000000;font-variation-settings:normal;display:inline;overflow:visible;visibility:visible;vector-effect:none;fill:#6b624c;fill-opacity:1;fill-rule:evenodd;stroke:#2c2116;stroke-width:0.5;stroke-linecap:butt;stroke-linejoin:bevel;stroke-miterlimit:4;stroke-dasharray:none;stroke-dashoffset:0;stroke-opacity:1;marker:none;enable-background:accumulate;stop-color:#000000" />
  <g
     aria-label="1"
     id="text1022-5"
     style="font-style:normal;font-variant:normal;font-weight:normal;font-stretch:normal;font-size:10.6667px;line-height:1.25;font-family:Dyuthi;-inkscape-font-specification:Dyuthi;letter-spacing:0px;fill:#2c2116;fill-opacity:1"
     transform="matrix(0.52453741,0,0,0.49688093,30.621836,-16.770489)">
    <path
       d="m 10.265059,74.77949 q 0,0 0.69271,0 0.234376,0 0.395835,0.156251 0.161459,0.161458 0.15625,0.390626 v 5.296891 q 0,0.385418 -0.229167,0.604169 -0.104167,0.104167 -0.541668,0.104167 h -0.02083 q -0.447918,0 -0.552085,-0.104167 -0.2291673,-0.234376 -0.2291673,-0.604169 v -4.26043 q -0.2500008,0.135417 -0.4791681,0.234376 -0.2291674,0.09896 -0.4479181,0.0052 Q 8.7910958,76.503454 8.7025538,76.305537 8.5515117,76.154494 8.660887,75.894077 8.7754707,75.633659 9.0150548,75.529492 9.509848,75.326367 9.7702655,75.050324 10.030683,74.77949 10.265059,74.77949 Z"
       id="path1048-4"
       style="fill:#2c2116;fill-opacity:1" />
  </g>
  <rect
     width="6.085784"
     height="4.9604168"
     rx="1.0726633"
     ry="1.0726633"
     x="39.563812"
     y="19.583027"
     id="rect1190"
     style="color:#000000;font-variation-settings:normal;display:inline;overflow:visible;visibility:visible;vector-effect:none;fill:#6b624c;fill-opacity:1;fill-rule:evenodd;stroke:#2c2116;stroke-width:0.5;stroke-linecap:butt;stroke-linejoin:bevel;stroke-miterlimit:4;stroke-dasharray:none;stroke-dashoffset:0;stroke-opacity:1;marker:none;enable-background:accumulate;stop-color:#000000" />
  <g
     aria-label="1"
     id="g1194"
     style="font-style:normal;font-variant:normal;font-weight:normal;font-stretch:normal;font-size:10.6667px;line-height:1.25;font-family:Dyuthi;-inkscape-font-specification:Dyuthi;letter-spacing:0px;fill:#2c2116;fill-opacity:1"
     transform="matrix(0.52453741,0,0,0.49688093,37.124262,-16.770489)">
    <path
       d="m 10.265059,74.77949 q 0,0 0.69271,0 0.234376,0 0.395835,0.156251 0.161459,0.161458 0.15625,0.390626 v 5.296891 q 0,0.385418 -0.229167,0.604169 -0.104167,0.104167 -0.541668,0.104167 h -0.02083 q -0.447918,0 -0.552085,-0.104167 -0.2291673,-0.234376 -0.2291673,-0.604169 v -4.26043 q -0.2500008,0.135417 -0.4791681,0.234376 -0.2291674,0.09896 -0.4479181,0.0052 Q 8.7910958,76.503454 8.7025538,76.305537 8.5515117,76.154494 8.660887,75.894077 8.7754707,75.633659 9.0150548,75.529492 9.509848,75.326367 9.7702655,75.050324 10.030683,74.77949 10.265059,74.77949 Z"
       id="path1192"
       style="fill:#2c2116;fill-opacity:1" />
  </g>
</svg>
