<?xml version="1.0" encoding="UTF-8" standalone="no"?>
<svg
   xmlns:dc="http://purl.org/dc/elements/1.1/"
   xmlns:cc="http://creativecommons.org/ns#"
   xmlns:rdf="http://www.w3.org/1999/02/22-rdf-syntax-ns#"
   xmlns:svg="http://www.w3.org/2000/svg"
   xmlns="http://www.w3.org/2000/svg"
   xmlns:xlink="http://www.w3.org/1999/xlink"
   xmlns:sodipodi="http://sodipodi.sourceforge.net/DTD/sodipodi-0.dtd"
   xmlns:inkscape="http://www.inkscape.org/namespaces/inkscape"
   version="1.1"
   width="100%"
   height="100%"
   viewBox="0 0 48 48"
   id="svg2985"
   sodipodi:docname="6c_eq_1c45.svg"
   inkscape:version="1.0.2 (1.0.2+r75+1)">
  <sodipodi:namedview
     pagecolor="#ffffff"
     bordercolor="#666666"
     borderopacity="1"
     objecttolerance="10"
     gridtolerance="10"
     guidetolerance="10"
     inkscape:pageopacity="0"
     inkscape:pageshadow="2"
     inkscape:window-width="1110"
     inkscape:window-height="676"
     id="namedview19"
     showgrid="false"
     inkscape:zoom="4.2500064"
     inkscape:cx="36.299937"
     inkscape:cy="29.888273"
     inkscape:window-x="80"
     inkscape:window-y="50"
     inkscape:window-maximized="0"
     inkscape:current-layer="svg2985"
     inkscape:document-rotation="0" />
  <metadata
     id="metadata16">
    <rdf:RDF>
      <cc:Work
         rdf:about="">
        <dc:format>image/svg+xml
</dc:format>
        <dc:type
           rdf:resource="http://purl.org/dc/dcmitype/StillImage" />
        <dc:title></dc:title>
      </cc:Work>
    </rdf:RDF>
  </metadata>
  <defs
     id="defs2987" />
  <rect
     width="6.085783"
     height="8.0288353"
     rx="1.0726633"
     ry="1.0726633"
     x="30.148899"
     y="13.734956"
     id="rect355"
     style="color:#000000;font-variation-settings:normal;display:inline;overflow:visible;visibility:visible;opacity:1;vector-effect:none;fill:#6b624c;fill-opacity:1;fill-rule:evenodd;stroke:#2c2116;stroke-width:0.5;stroke-linecap:butt;stroke-linejoin:bevel;stroke-miterlimit:4;stroke-dasharray:none;stroke-dashoffset:0;stroke-opacity:1;marker:none;enable-background:accumulate;stop-color:#000000;stop-opacity:1" />
  <g
     aria-label="5"
     id="g359"
     style="font-style:normal;font-variant:normal;font-weight:normal;font-stretch:normal;font-size:10.6667px;line-height:1.25;font-family:Dyuthi;-inkscape-font-specification:Dyuthi;letter-spacing:0px;fill:#2c2116;fill-opacity:1"
     transform="matrix(0.52453741,0,0,0.52453741,31.812768,-25.050969)">
    <path
       d="m 1.9731306,80.016229 -0.078125,1.208337 q 2.9114675,0 2.9010508,2.072923 -0.00521,0.854169 -0.9270862,1.473963 -0.9218779,0.619794 -2.2291737,0.614585 -0.98437815,0 -1.24479564,-0.276042 -0.11458369,-0.119792 -0.11458369,-0.291668 v -0.01042 q 0,-0.223959 0.17187554,-0.364584 0.17187554,-0.140625 0.47395983,-0.08854 0.30208426,0.05729 0.62500196,0.03646 0.6093769,-0.01042 1.0364616,-0.333334 0.4270847,-0.322918 0.4322931,-0.781252 v -0.05729 q 0,-0.260418 -0.1822923,-0.526044 -0.1770839,-0.260417 -0.4947932,-0.354167 -0.3177094,-0.09375 -0.8697944,-0.07813 -0.55208511,0.01563 -0.63541871,0 -0.26562584,-0.05729 -0.31250098,-0.307292 -0.0104167,-0.04167 0.0104167,-0.270834 L 0.79083525,78.797475 H 4.1085541 q 0.3020842,0 0.5260433,0.296876 0.223959,0.296876 0.057292,0.635418 -0.2291674,0.463544 -0.5885435,0.437502 z"
       id="path357"
       style="fill:#2c2116;fill-opacity:1" />
  </g>
  <rect
     width="7.5799103"
     height="8.0501556"
     rx="1.3360139"
     ry="1.3360139"
     x="38.088768"
     y="13.489881"
     id="rect347"
     style="color:#000000;font-variation-settings:normal;display:inline;overflow:visible;visibility:visible;opacity:1;vector-effect:none;fill:#baa494;fill-opacity:1;fill-rule:evenodd;stroke:#453322;stroke-width:0.5;stroke-linecap:butt;stroke-linejoin:bevel;stroke-miterlimit:4;stroke-dasharray:none;stroke-dashoffset:0;stroke-opacity:1;marker:none;enable-background:accumulate;stop-color:#000000;stop-opacity:1" />
  <g
     aria-label="20"
     id="g353"
     style="font-style:normal;font-variant:normal;font-weight:normal;font-stretch:normal;font-size:10.6667px;line-height:1.25;font-family:Dyuthi;-inkscape-font-specification:Dyuthi;letter-spacing:0px;fill:#453322;fill-opacity:1"
     transform="matrix(0.52453741,0,0,0.52453741,28.144489,-16.136044)">
    <path
       d="m 22.973349,66.191881 h 1.567713 q 0.244793,0 0.432293,0.182292 0.182293,0.192709 0.177084,0.427084 v 0.01563 q 0,0.25 -0.171875,0.437501 -0.177084,0.187501 -0.437502,0.187501 h -3.125009 q -0.328126,0 -0.447919,-0.296876 -0.125,-0.296876 0.06771,-0.53646 0.328126,-0.406252 1.395838,-1.817715 1.067711,-1.416671 1.07292,-1.432296 0.239584,-0.343751 0.213542,-0.604168 -0.01563,-0.109376 -0.08333,-0.276043 -0.0625,-0.166667 -0.140626,-0.229167 -0.07813,-0.0625 -0.15625,-0.104167 -0.406252,-0.223959 -0.739586,-0.187501 -0.333334,0.03646 -0.53646,0.213543 -0.208334,0.177083 -0.401043,0.171875 -0.203126,-0.01042 -0.338543,-0.125 h -0.01042 q -0.203126,-0.151042 -0.182293,-0.406252 0.02083,-0.255209 0.229168,-0.411459 0.656252,-0.479168 1.619797,-0.47396 0.963544,0 1.567713,0.510418 0.604168,0.510418 0.604168,1.338546 0,0.828128 -0.78646,1.70313 -0.385418,0.421877 -1.39063,1.713548 z"
       id="path349"
       style="fill:#453322;fill-opacity:1" />
    <path
       d="m 28.738993,66.613757 q 0.541668,0 0.984378,-0.692711 0.406251,-0.625002 0.411459,-1.776047 0,-1.177087 -0.411459,-1.796881 -0.406252,-0.625002 -0.984378,-0.625002 -0.588544,0 -0.994795,0.619794 -0.406251,0.625002 -0.406251,1.802089 0,1.156254 0.421876,1.812506 0.421876,0.656252 0.97917,0.656252 z m 0,-5.750018 q 1.276045,0.0625 2.088548,1.01042 0.734377,0.854169 0.729169,2.291674 0,1.437504 -0.671877,2.291673 -0.671877,0.848961 -1.968757,0.953128 -0.07292,0.0052 -0.104167,0.01042 -0.03125,0.01042 -0.04687,0.01042 -0.02083,0 -0.03125,0 -0.01042,0 -0.02604,-0.0052 -0.03125,0.0052 -0.151043,-0.01563 -1.390629,-0.234375 -2.015631,-1.015628 -0.625002,-0.776044 -0.635419,-2.20834 -0.01042,-1.432296 0.765628,-2.343757 0.781252,-0.906253 2.067715,-0.97917 z"
       id="path351"
       style="fill:#453322;fill-opacity:1" />
  </g>
  <use
     transform="matrix(0.80951931,0,0,0.80951931,91.069484,35.929239)"
     id="use4745"
     x="0"
     y="0"
     width="640"
     height="480"
     xlink:href="#helper" />
  <use
     transform="matrix(0.83632243,0,0,0.83632243,123.97436,37.472072)"
     id="use4743"
     x="0"
     y="0"
     width="640"
     height="480"
     xlink:href="#helper" />
  <g
     id="layer1">
    <path
       d="m 7,35.99 34,0 0,1.59 -34,0 z"
       id="rect3778"
       style="color:#000000;fill:#241f1c;fill-opacity:1;fill-rule:evenodd;stroke:none;stroke-width:0.99;marker:none;visibility:visible;display:inline;overflow:visible;enable-background:accumulate" />
    <path
       d="m 9.71,30.85 2.57,0 0,12 -2.57,0 z"
       id="rect3776"
       style="color:#000000;fill:#333333;fill-opacity:1;fill-rule:evenodd;stroke:#191615;stroke-width:0.30;stroke-miterlimit:4;stroke-opacity:1;marker:none;visibility:visible;display:inline;overflow:visible;enable-background:accumulate" />
    <path
       d="m 1,30 20,0 0,2 -20,0 z"
       id="rect2998"
       style="color:#000000;fill:#d3bc5f;fill-opacity:1;fill-rule:evenodd;stroke:#191615;stroke-width:0.40;stroke-miterlimit:4;stroke-opacity:1;marker:none;visibility:visible;display:inline;overflow:visible;enable-background:accumulate" />
    <path
       d="m 36,30.85 2.57,0 0,12 -2.57,0 z"
       id="rect3791"
       style="color:#000000;fill:#333333;fill-opacity:1;fill-rule:evenodd;stroke:#191615;stroke-width:0.30;stroke-miterlimit:4;stroke-opacity:1;marker:none;visibility:visible;display:inline;overflow:visible;enable-background:accumulate" />
    <path
       d="m 27,30 20,0 0,2 -20,0 z"
       id="rect3772"
       style="color:#000000;fill:#d3bc5f;fill-opacity:1;fill-rule:evenodd;stroke:#191615;stroke-width:0.40;stroke-linecap:butt;stroke-linejoin:miter;stroke-miterlimit:4;stroke-opacity:1;stroke-dashoffset:0;marker:none;visibility:visible;display:inline;overflow:visible;enable-background:accumulate" />
    <path
       d="m 24,33 c -3.86,0 -7,3.13 -7,7 0,0.79 0.13,1.56 0.37,2.28 l 3.34,0 C 20.27,41.63 20,40.84 20,40 c 0,-2.2 1.79,-4 4,-4 2.2,0 4,1.79 4,4 0,0.84 -0.27,1.63 -0.71,2.28 l 3.34,0 C 30.86,41.56 31,40.79 31,40 31,36.13 27.86,33 24,33 z m 0,3.84 c -1.73,0 -3.15,1.42 -3.15,3.15 0,0.9 0.41,1.7 1.03,2.28 l 4.25,0 C 26.74,41.7 27.15,40.9 27.15,40 27.15,38.26 25.73,36.84 24,36.84 z m 0,1.37 c 0.99,0 1.78,0.78 1.78,1.78 0,0.99 -0.78,1.78 -1.78,1.78 -0.99,0 -1.78,-0.78 -1.78,-1.78 C 22.22,39 23,38.21 24,38.21 z"
       id="path3774"
       style="color:#000000;fill:#917c6f;fill-opacity:1;fill-rule:evenodd;stroke:none;stroke-width:0.99;marker:none;visibility:visible;display:inline;overflow:visible;enable-background:accumulate" />
    <path
       d="m 24,34.51 c 0.55,0 1,0.44 1,1 l 0,5.33 c 0,0.55 -0.44,1 -1,1 -0.55,0 -1,-0.44 -1,-1 l 0,-5.33 c 0,-0.55 0.44,-1 1,-1 z"
       id="rect3793"
       style="color:#000000;fill:#ff0000;fill-opacity:1;fill-rule:evenodd;stroke:#4b1400;stroke-width:0.5;stroke-miterlimit:4;stroke-opacity:1;marker:none;visibility:visible;display:inline;overflow:visible;enable-background:accumulate" />
    <path
       d="m 6,40 c -1.11,0 -2,0.89 -2,2 l 0,1.56 0,0.44 0,2 2,0 36,0 2,0 0,-2 0,-0.43 0,-1.57 c 0,-1.1 -0.89,-2 -2,-2 L 6,40 z"
       id="rect2993"
       style="color:#000000;fill:#30251c;fill-opacity:1;fill-rule:evenodd;stroke:#191615;stroke-width:0.40;stroke-miterlimit:4;stroke-opacity:1;stroke-dasharray:none;marker:none;visibility:visible;display:inline;overflow:visible;enable-background:accumulate" />
    <path
       d="m 31,40 c 0,-3.86 -3.13,-7 -7,-7 -3.86,0 -7,3.13 -7,7"
       id="path3817"
       style="color:#000000;fill:none;stroke:#191615;stroke-width:0.40;stroke-miterlimit:4;stroke-opacity:1;stroke-dasharray:none;marker:none;visibility:visible;display:inline;overflow:visible;enable-background:accumulate" />
  </g>
  <rect
     width="7.7167635"
     height="7.7167635"
     rx="1.5433527"
     ry="1.5433527"
     x="0.96816665"
     y="22.053379"
     id="rect311"
     style="color:#000000;display:inline;overflow:visible;visibility:visible;fill:#2242cd;fill-opacity:1;fill-rule:evenodd;stroke:#00084c;stroke-width:0.385838;stroke-linecap:butt;stroke-linejoin:miter;stroke-miterlimit:4;stroke-dasharray:none;stroke-dashoffset:0;stroke-opacity:1;marker:none;enable-background:accumulate" />
  <path
     d="m 4.1474777,25.780577 c 0.0077,0.501589 0.0463,1.103497 0.478439,1.435318 0.324104,0.231503 0.833411,0.138901 1.034046,-0.21607 0.154336,-0.115751 0.100318,-0.532456 0.339538,-0.439855 0.254653,0.0463 0.517023,0.0926 0.779393,0.146618 -0.177485,0.617341 -0.617341,1.226966 -1.280983,1.365867 -0.702225,0.146619 -1.543352,-0.03858 -1.960058,-0.671358 -0.424422,-0.663642 -0.439855,-1.497052 -0.347254,-2.261012 0.06945,-0.617341 0.393555,-1.265549 1.003179,-1.497052 0.671359,-0.254653 1.558787,-0.216069 2.068093,0.347255 0.154335,0.200635 0.455289,0.601907 0.370405,0.802543 -0.277804,0.06173 -0.563324,0.131185 -0.848844,0.200636 -0.08488,-0.362688 -0.354972,-0.779393 -0.78711,-0.74081 -0.455289,0 -0.733093,0.447573 -0.794827,0.856561 -0.03858,0.21607 -0.05402,0.439856 -0.05402,0.655925 z"
     id="path313"
     style="color:#000000;font-style:normal;font-variant:normal;font-weight:bold;font-stretch:normal;font-size:8.86px;line-height:125%;font-family:'Liberation Mono';-inkscape-font-specification:'Sans Bold';letter-spacing:0px;word-spacing:0px;visibility:visible;fill:#afd2f6;fill-opacity:1;fill-rule:nonzero;stroke:#000667;stroke-width:0.154335;stroke-linecap:butt;stroke-linejoin:miter;stroke-miterlimit:4;stroke-dashoffset:0;stroke-opacity:1;marker:none" />
  <rect
     width="7.7167635"
     height="7.7167635"
     rx="1.5433527"
     ry="1.5433527"
     x="9.3280859"
     y="22.053379"
     id="rect315"
     style="color:#000000;display:inline;overflow:visible;visibility:visible;fill:#2242cd;fill-opacity:1;fill-rule:evenodd;stroke:#00084c;stroke-width:0.385838;stroke-linecap:butt;stroke-linejoin:miter;stroke-miterlimit:4;stroke-dasharray:none;stroke-dashoffset:0;stroke-opacity:1;marker:none;enable-background:accumulate" />
  <path
     d="m 12.507397,25.780577 c 0.0077,0.501589 0.0463,1.103497 0.478439,1.435318 0.324104,0.231503 0.833411,0.138901 1.034046,-0.21607 0.154336,-0.115751 0.100318,-0.532456 0.339538,-0.439855 0.254653,0.0463 0.517023,0.0926 0.779393,0.146618 -0.177485,0.617341 -0.617341,1.226966 -1.280983,1.365867 -0.702225,0.146619 -1.543352,-0.03858 -1.960058,-0.671358 -0.424422,-0.663642 -0.439855,-1.497052 -0.347254,-2.261012 0.06945,-0.617341 0.393555,-1.265549 1.003179,-1.497052 0.671359,-0.254653 1.558787,-0.216069 2.068093,0.347255 0.154335,0.200635 0.455289,0.601907 0.370405,0.802543 -0.277804,0.06173 -0.563324,0.131185 -0.848844,0.200636 -0.08488,-0.362688 -0.354972,-0.779393 -0.78711,-0.74081 -0.455289,0 -0.733093,0.447573 -0.794827,0.856561 -0.03858,0.21607 -0.05402,0.439856 -0.05402,0.655925 z"
     id="path317"
     style="color:#000000;font-style:normal;font-variant:normal;font-weight:bold;font-stretch:normal;font-size:8.86px;line-height:125%;font-family:'Liberation Mono';-inkscape-font-specification:'Sans Bold';letter-spacing:0px;word-spacing:0px;visibility:visible;fill:#afd2f6;fill-opacity:1;fill-rule:nonzero;stroke:#000667;stroke-width:0.154335;stroke-linecap:butt;stroke-linejoin:miter;stroke-miterlimit:4;stroke-dashoffset:0;stroke-opacity:1;marker:none" />
  <rect
     width="7.7167635"
     height="7.7167635"
     rx="1.5433527"
     ry="1.5433527"
     x="2.0370109"
     y="14.072339"
     id="rect319"
     style="color:#000000;display:inline;overflow:visible;visibility:visible;fill:#2242cd;fill-opacity:1;fill-rule:evenodd;stroke:#00084c;stroke-width:0.385838;stroke-linecap:butt;stroke-linejoin:miter;stroke-miterlimit:4;stroke-dasharray:none;stroke-dashoffset:0;stroke-opacity:1;marker:none;enable-background:accumulate" />
  <path
     d="m 5.216322,17.799537 c 0.0077,0.501589 0.0463,1.103497 0.478439,1.435318 0.324104,0.231503 0.833411,0.138901 1.034046,-0.21607 0.154336,-0.115751 0.100318,-0.532456 0.339538,-0.439855 0.254653,0.0463 0.517023,0.0926 0.779393,0.146618 C 7.670253,19.342889 7.230397,19.952514 6.566755,20.091415 5.86453,20.238034 5.023403,20.052835 4.606697,19.420057 4.182275,18.756415 4.166842,17.923005 4.259443,17.159045 c 0.06945,-0.617341 0.393555,-1.265549 1.003179,-1.497052 0.671359,-0.254653 1.558787,-0.216069 2.068093,0.347255 0.154335,0.200635 0.455289,0.601907 0.370405,0.802543 -0.277804,0.06173 -0.563324,0.131185 -0.848844,0.200636 -0.08488,-0.362688 -0.354972,-0.779393 -0.78711,-0.74081 -0.455289,0 -0.733093,0.447573 -0.794827,0.856561 -0.03858,0.21607 -0.05402,0.439856 -0.05402,0.655925 z"
     id="path321"
     style="color:#000000;font-style:normal;font-variant:normal;font-weight:bold;font-stretch:normal;font-size:8.86px;line-height:125%;font-family:'Liberation Mono';-inkscape-font-specification:'Sans Bold';letter-spacing:0px;word-spacing:0px;visibility:visible;fill:#afd2f6;fill-opacity:1;fill-rule:nonzero;stroke:#000667;stroke-width:0.154335;stroke-linecap:butt;stroke-linejoin:miter;stroke-miterlimit:4;stroke-dashoffset:0;stroke-opacity:1;marker:none" />
  <rect
     width="7.7167635"
     height="7.7167635"
     rx="1.5433527"
     ry="1.5433527"
     x="10.455981"
     y="14.072339"
     id="rect323"
     style="color:#000000;display:inline;overflow:visible;visibility:visible;fill:#2242cd;fill-opacity:1;fill-rule:evenodd;stroke:#00084c;stroke-width:0.385838;stroke-linecap:butt;stroke-linejoin:miter;stroke-miterlimit:4;stroke-dasharray:none;stroke-dashoffset:0;stroke-opacity:1;marker:none;enable-background:accumulate" />
  <path
     d="m 13.635293,17.799537 c 0.0077,0.501589 0.0463,1.103497 0.478439,1.435318 0.324104,0.231503 0.833411,0.138901 1.034046,-0.21607 0.154336,-0.115751 0.100318,-0.532456 0.339538,-0.439855 0.254653,0.0463 0.517023,0.0926 0.779393,0.146618 -0.177485,0.617341 -0.617341,1.226966 -1.280983,1.365867 -0.702225,0.146619 -1.543352,-0.03858 -1.960058,-0.671358 -0.424422,-0.663642 -0.439855,-1.497052 -0.347254,-2.261012 0.06945,-0.617341 0.393555,-1.265549 1.003179,-1.497052 0.671359,-0.254653 1.558787,-0.216069 2.068093,0.347255 0.154335,0.200635 0.455289,0.601907 0.370405,0.802543 -0.277804,0.06173 -0.563324,0.131185 -0.848844,0.200636 -0.08488,-0.362688 -0.354972,-0.779393 -0.78711,-0.74081 -0.455289,0 -0.733093,0.447573 -0.794827,0.856561 -0.03858,0.21607 -0.05402,0.439856 -0.05402,0.655925 z"
     id="path325"
     style="color:#000000;font-style:normal;font-variant:normal;font-weight:bold;font-stretch:normal;font-size:8.86px;line-height:125%;font-family:'Liberation Mono';-inkscape-font-specification:'Sans Bold';letter-spacing:0px;word-spacing:0px;visibility:visible;fill:#afd2f6;fill-opacity:1;fill-rule:nonzero;stroke:#000667;stroke-width:0.154335;stroke-linecap:butt;stroke-linejoin:miter;stroke-miterlimit:4;stroke-dashoffset:0;stroke-opacity:1;marker:none" />
  <rect
     width="7.7167635"
     height="7.7167635"
     rx="1.5433527"
     ry="1.5433527"
     x="1.2800738"
     y="6.1201019"
     id="rect327"
     style="color:#000000;display:inline;overflow:visible;visibility:visible;fill:#2242cd;fill-opacity:1;fill-rule:evenodd;stroke:#00084c;stroke-width:0.385838;stroke-linecap:butt;stroke-linejoin:miter;stroke-miterlimit:4;stroke-dasharray:none;stroke-dashoffset:0;stroke-opacity:1;marker:none;enable-background:accumulate" />
  <path
     d="m 4.4593849,9.8473 c 0.0077,0.501589 0.0463,1.103497 0.478439,1.435318 0.324104,0.231503 0.833411,0.138901 1.034046,-0.21607 0.154336,-0.115751 0.100318,-0.532456 0.339538,-0.439855 0.254653,0.0463 0.517023,0.0926 0.779393,0.146618 -0.177485,0.617341 -0.617341,1.226966 -1.280983,1.365867 -0.702225,0.146619 -1.543352,-0.03858 -1.960058,-0.671358 -0.424422,-0.663642 -0.439855,-1.497052 -0.347254,-2.261012 0.06945,-0.617341 0.393555,-1.265549 1.003179,-1.497052 0.671359,-0.254653 1.558787,-0.216069 2.068093,0.347255 0.154335,0.200635 0.455289,0.601907 0.370405,0.802543 -0.277804,0.06173 -0.563324,0.131185 -0.848844,0.200636 -0.08488,-0.362688 -0.354972,-0.779393 -0.78711,-0.74081 -0.455289,0 -0.733093,0.447573 -0.794827,0.856561 -0.03858,0.21607 -0.05402,0.439856 -0.05402,0.655925 z"
     id="path329"
     style="color:#000000;font-style:normal;font-variant:normal;font-weight:bold;font-stretch:normal;font-size:8.86px;line-height:125%;font-family:'Liberation Mono';-inkscape-font-specification:'Sans Bold';letter-spacing:0px;word-spacing:0px;visibility:visible;fill:#afd2f6;fill-opacity:1;fill-rule:nonzero;stroke:#000667;stroke-width:0.154335;stroke-linecap:butt;stroke-linejoin:miter;stroke-miterlimit:4;stroke-dashoffset:0;stroke-opacity:1;marker:none" />
  <rect
     width="7.7167635"
     height="7.7167635"
     rx="1.5433527"
     ry="1.5433527"
     x="9.6110067"
     y="6.1201019"
     id="rect331"
     style="color:#000000;display:inline;overflow:visible;visibility:visible;fill:#2242cd;fill-opacity:1;fill-rule:evenodd;stroke:#00084c;stroke-width:0.385838;stroke-linecap:butt;stroke-linejoin:miter;stroke-miterlimit:4;stroke-dasharray:none;stroke-dashoffset:0;stroke-opacity:1;marker:none;enable-background:accumulate" />
  <path
     d="m 12.790318,9.8473 c 0.0077,0.501589 0.0463,1.103497 0.478439,1.435318 0.324104,0.231503 0.833411,0.138901 1.034046,-0.21607 0.154336,-0.115751 0.100318,-0.532456 0.339538,-0.439855 0.254653,0.0463 0.517023,0.0926 0.779393,0.146618 -0.177485,0.617341 -0.617341,1.226966 -1.280983,1.365867 -0.702225,0.146619 -1.543352,-0.03858 -1.960058,-0.671358 -0.424422,-0.663642 -0.439855,-1.497052 -0.347254,-2.261012 0.06945,-0.617341 0.393555,-1.265549 1.003179,-1.497052 0.671359,-0.254653 1.558787,-0.216069 2.068093,0.347255 0.154335,0.200635 0.455289,0.601907 0.370405,0.802543 -0.277804,0.06173 -0.563324,0.131185 -0.848844,0.200636 -0.08488,-0.362688 -0.354972,-0.779393 -0.78711,-0.74081 -0.455289,0 -0.733093,0.447573 -0.794827,0.856561 -0.03858,0.21607 -0.05402,0.439856 -0.05402,0.655925 z"
     id="path333"
     style="color:#000000;font-style:normal;font-variant:normal;font-weight:bold;font-stretch:normal;font-size:8.86px;line-height:125%;font-family:'Liberation Mono';-inkscape-font-specification:'Sans Bold';letter-spacing:0px;word-spacing:0px;visibility:visible;fill:#afd2f6;fill-opacity:1;fill-rule:nonzero;stroke:#000667;stroke-width:0.154335;stroke-linecap:butt;stroke-linejoin:miter;stroke-miterlimit:4;stroke-dashoffset:0;stroke-opacity:1;marker:none" />
  <rect
     width="7.7167635"
     height="7.7167635"
     rx="1.5433527"
     ry="1.5433527"
     x="27.944973"
     y="22.053379"
     id="rect335"
     style="color:#000000;display:inline;overflow:visible;visibility:visible;fill:#2242cd;fill-opacity:1;fill-rule:evenodd;stroke:#00084c;stroke-width:0.385838;stroke-linecap:butt;stroke-linejoin:miter;stroke-miterlimit:4;stroke-dasharray:none;stroke-dashoffset:0;stroke-opacity:1;marker:none;enable-background:accumulate" />
  <path
     d="m 31.124283,25.780577 c 0.0077,0.501589 0.0463,1.103497 0.478439,1.435318 0.324104,0.231503 0.833411,0.138901 1.034046,-0.21607 0.154336,-0.115751 0.100318,-0.532456 0.339538,-0.439855 0.254653,0.0463 0.517023,0.0926 0.779393,0.146618 -0.177485,0.617341 -0.617341,1.226966 -1.280983,1.365867 -0.702225,0.146619 -1.543352,-0.03858 -1.960058,-0.671358 -0.424422,-0.663642 -0.439855,-1.497052 -0.347254,-2.261012 0.06945,-0.617341 0.393555,-1.265549 1.003179,-1.497052 0.671359,-0.254653 1.558787,-0.216069 2.068093,0.347255 0.154335,0.200635 0.455289,0.601907 0.370405,0.802543 -0.277804,0.06173 -0.563324,0.131185 -0.848844,0.200636 -0.08488,-0.362688 -0.354972,-0.779393 -0.78711,-0.74081 -0.455289,0 -0.733093,0.447573 -0.794827,0.856561 -0.03858,0.21607 -0.05402,0.439856 -0.05402,0.655925 z"
     id="path337"
     style="color:#000000;font-style:normal;font-variant:normal;font-weight:bold;font-stretch:normal;font-size:8.86px;line-height:125%;font-family:'Liberation Mono';-inkscape-font-specification:'Sans Bold';letter-spacing:0px;word-spacing:0px;visibility:visible;fill:#afd2f6;fill-opacity:1;fill-rule:nonzero;stroke:#000667;stroke-width:0.154335;stroke-linecap:butt;stroke-linejoin:miter;stroke-miterlimit:4;stroke-dashoffset:0;stroke-opacity:1;marker:none" />
  <rect
     width="7.5799103"
     height="8.0501556"
     rx="1.3360139"
     ry="1.3360139"
     x="37.802734"
     y="21.817568"
     id="rect339"
     style="color:#000000;font-variation-settings:normal;display:inline;overflow:visible;visibility:visible;opacity:1;vector-effect:none;fill:#baa494;fill-opacity:1;fill-rule:evenodd;stroke:#453322;stroke-width:0.5;stroke-linecap:butt;stroke-linejoin:bevel;stroke-miterlimit:4;stroke-dasharray:none;stroke-dashoffset:0;stroke-opacity:1;marker:none;enable-background:accumulate;stop-color:#000000;stop-opacity:1" />
  <g
     aria-label="20"
     id="g345"
     style="font-style:normal;font-variant:normal;font-weight:normal;font-stretch:normal;font-size:10.6667px;line-height:1.25;font-family:Dyuthi;-inkscape-font-specification:Dyuthi;letter-spacing:0px;fill:#453322;fill-opacity:1"
     transform="matrix(0.52453741,0,0,0.52453741,27.858457,-7.8083568)">
    <path
       d="m 22.973349,66.191881 h 1.567713 q 0.244793,0 0.432293,0.182292 0.182293,0.192709 0.177084,0.427084 v 0.01563 q 0,0.25 -0.171875,0.437501 -0.177084,0.187501 -0.437502,0.187501 h -3.125009 q -0.328126,0 -0.447919,-0.296876 -0.125,-0.296876 0.06771,-0.53646 0.328126,-0.406252 1.395838,-1.817715 1.067711,-1.416671 1.07292,-1.432296 0.239584,-0.343751 0.213542,-0.604168 -0.01563,-0.109376 -0.08333,-0.276043 -0.0625,-0.166667 -0.140626,-0.229167 -0.07813,-0.0625 -0.15625,-0.104167 -0.406252,-0.223959 -0.739586,-0.187501 -0.333334,0.03646 -0.53646,0.213543 -0.208334,0.177083 -0.401043,0.171875 -0.203126,-0.01042 -0.338543,-0.125 h -0.01042 q -0.203126,-0.151042 -0.182293,-0.406252 0.02083,-0.255209 0.229168,-0.411459 0.656252,-0.479168 1.619797,-0.47396 0.963544,0 1.567713,0.510418 0.604168,0.510418 0.604168,1.338546 0,0.828128 -0.78646,1.70313 -0.385418,0.421877 -1.39063,1.713548 z"
       id="path341"
       style="fill:#453322;fill-opacity:1" />
    <path
       d="m 28.738993,66.613757 q 0.541668,0 0.984378,-0.692711 0.406251,-0.625002 0.411459,-1.776047 0,-1.177087 -0.411459,-1.796881 -0.406252,-0.625002 -0.984378,-0.625002 -0.588544,0 -0.994795,0.619794 -0.406251,0.625002 -0.406251,1.802089 0,1.156254 0.421876,1.812506 0.421876,0.656252 0.97917,0.656252 z m 0,-5.750018 q 1.276045,0.0625 2.088548,1.01042 0.734377,0.854169 0.729169,2.291674 0,1.437504 -0.671877,2.291673 -0.671877,0.848961 -1.968757,0.953128 -0.07292,0.0052 -0.104167,0.01042 -0.03125,0.01042 -0.04687,0.01042 -0.02083,0 -0.03125,0 -0.01042,0 -0.02604,-0.0052 -0.03125,0.0052 -0.151043,-0.01563 -1.390629,-0.234375 -2.015631,-1.015628 -0.625002,-0.776044 -0.635419,-2.20834 -0.01042,-1.432296 0.765628,-2.343757 0.781252,-0.906253 2.067715,-0.97917 z"
       id="path343"
       style="fill:#453322;fill-opacity:1" />
  </g>
</svg>
